<svg
    xmlns="http://www.w3.org/2000/svg"
    fill="none"
    height="24"
    stroke="currentColor"
    stroke-linecap="round"
    stroke-linejoin="round"
    stroke-width="2"
    viewBox="0 0 24 24"
    width="24"
  >
  <path
      d="M12 12m-9 0a9 9 0 1 0 18 0a9 9 0 1 0 -18 0"
  />
</svg
>
