<svg
    xmlns="http://www.w3.org/2000/svg"
    fill="none"
    height="24"
    stroke="currentColor"
    stroke-linecap="round"
    stroke-linejoin="round"
    stroke-width="2"
    viewBox="0 0 24 24"
    width="24"
  >
  <path
      d="M5 3m0 2a2 2 0 0 1 2 -2h10a2 2 0 0 1 2 2v14a2 2 0 0 1 -2 2h-10a2 2 0 0 1 -2 -2z"
  />
  <path
      d="M9 7l6 0"
  />
  <path
      d="M9 11l6 0"
  />
  <path
      d="M9 15l4 0"
  />
</svg
>
