{{- define "main" -}}

{
  "version": "https://jsonfeed.org/version/1.1",
  "title": "{{ .Site.Title }}",
  "home_page_url": "{{ .Site.BaseURL }}",
  "feed_url": "{{ .Site.BaseURL }}/index.json",
  {{- with .Paginator.Next }}
  "next_url": "{{ .URL | absURL }}",
  {{- end }}
  "items": [
    {{- $filteredPages := partial "function-filters-content.html" .Paginator.Pages -}}
    {{- range $index, $data := $filteredPages -}}
    {{- if and $index (gt $index 0) -}},{{- end }}
    {
      "id": "{{ sha256 $data.Permalink }}",
      "url": "{{ $data.Permalink }}",
      "title": {{ $data.Summary | plainify | htmlUnescape | jsonify }},
      "summary": {{ $data.Summary | htmlUnescape | jsonify }},
      "date_modified": "{{ $data.Date | time.Format "2006-01-02T15:04:05Z" }}",
      "date_published": "{{ $data.PublishDate | time.Format "2006-01-02T15:04:05Z" }}",
      "_metadata": {
        "kind": "{{ $data.Kind }}",
        "type": "{{ $data.Type }}"
      },
      "author": {
        "name": "{{ $data.Type }}"
      },
      "tags": [
        {{- range $tags, $tag := $data.Params.tags -}}
          {{- if $tags -}}
          ,
          {{- end -}}
          "
          {{- $tag | htmlEscape -}}
          "
        {{- end -}}
      ],
      "content_text": {{ $data.Summary | plainify | htmlUnescape | jsonify }},
      "content_html": {{ partial "function-content.html" $data | jsonify }}
    }
    {{- end }}
  ]
}

{{- end -}}
