<svg
    xmlns="http://www.w3.org/2000/svg"
    fill="none"
    height="24"
    stroke="currentColor"
    stroke-linecap="round"
    stroke-linejoin="round"
    stroke-width="2"
    viewBox="0 0 24 24"
    width="24"
  ><line
      x1="5"
      x2="19"
      y1="12"
      y2="12"
  /><polyline
      points="12 5 19 12 12 19"
  /></svg
>
