<svg
    xmlns="http://www.w3.org/2000/svg"
    fill="none"
    height="24"
    stroke="currentColor"
    stroke-linecap="round"
    stroke-linejoin="round"
    stroke-width="2"
    viewBox="0 0 24 24"
    width="24"
  ><path
      d="M18 13v6a2 2 0 0 1-2 2H5a2 2 0 0 1-2-2V8a2 2 0 0 1 2-2h6"
  /><polyline
      points="15 3 21 3 21 9"
  /><line
      x1="10"
      x2="21"
      y1="14"
      y2="3"
  /></svg
>
