<svg
    xmlns="http://www.w3.org/2000/svg"
    fill="none"
    height="24"
    stroke="currentColor"
    stroke-linecap="round"
    stroke-linejoin="round"
    stroke-width="2"
    viewBox="0 0 24 24"
    width="24"
  ><path
      d="M21 10c0 7-9 13-9 13s-9-6-9-13a9 9 0 0 1 18 0z"
  /><circle
      cx="12"
      cy="10"
      r="3"
  /></svg
>
